<?xml version="1.0" encoding="UTF-8"?>
<svg width="8px" height="14px" viewBox="0 0 8 14" version="1.1" xmlns="http://www.w3.org/2000/svg" xmlns:xlink="http://www.w3.org/1999/xlink">
    
    <g id="" stroke="none" stroke-width="1" fill="none" fill-rule="evenodd">
        <g id="color" transform="translate(-164.000000, -22.000000)" fill="#ea5d1a">
            <g id="" transform="translate(24.000000, 16.000000)">
                <polygon id="" transform="translate(144.000000, 12.500000) rotate(-90.000000) translate(-144.000000, -12.500000) " points="148.971417 8.5 144.001083 13.4435897 139.029667 8.5 139.0275 8.5 137.5 10.0211876 144.001083 16.5 150.5 10.0211876 148.973583 8.5"></polygon>
            </g>
        </g>
    </g>
</svg>