<svg width="32" height="32" viewBox="0 0 32 32" fill="none" xmlns="http://www.w3.org/2000/svg">
<g id="pictogramme">
<circle id="Ellipse 9" cx="16" cy="16" r="16" fill="#E55D24"/>
<path id="Vector" d="M24.32 15.3596H7.68004C7.32658 15.3596 7.04004 15.6462 7.04004 15.9996C7.04004 16.3531 7.32658 16.6396 7.68004 16.6396H24.32C24.6735 16.6396 24.96 16.3531 24.96 15.9996C24.96 15.6462 24.6735 15.3596 24.32 15.3596Z" fill="white"/>
</g>
</svg>
